…
``` r
snow_common = ny_noaa_cleaned |>
  count(snow_mm) |>
  arrange(desc(n))

snow_common
```

    ## # A tibble: 281 × 2
    ##    snow_mm       n
    ##      <int>   <int>
    ##  1       0 2007240
    ##  2      NA  308654
    ##  3      25   30981
    ##  4      13   23082
    ##  5      51   18253
    ##  6      76   10159
    ##  7       8    9959
    ##  8       5    9742
    ##  9      38    9186
    ## 10       3    8786
    ## # ℹ 271 more rows
…
    ## `summarise()` has grouped output by 'year', 'month'. You can override using the
    ## `.groups` argument.

``` r
ride_duration_data
```

    ## # A tibble: 28 × 4
    ## # Groups:   year, month [4]
    ##    year  month   weekdays  median_duration
    ##    <chr> <chr>   <fct>               <dbl>
    ##  1 2020  January Monday               8.66
    ##  2 2020  January Tuesday              8.57
    ##  3 2020  January Wednesday            8.80
    ##  4 2020  January Thursday             8.50
    ##  5 2020  January Friday               8.64
    ##  6 2020  January Saturday             9.88
    ##  7 2020  January Sunday               9.97
    ##  8 2020  July    Monday              13.4 
    ##  9 2020  July    Tuesday             13.8 
    ## 10 2020  July    Wednesday           14.0 
    ## # ℹ 18 more rows
…
